%YAML 1.1
%TAG !u! tag:unity3d.com,2011:
--- !u!114 &11400000
MonoBehaviour:
  m_ObjectHideFlags: 0
  m_CorrespondingSourceObject: {fileID: 0}
  m_PrefabInstance: {fileID: 0}
  m_PrefabAsset: {fileID: 0}
  m_GameObject: {fileID: 0}
  m_Enabled: 1
  m_EditorHideFlags: 0
  m_Script: {fileID: 11500000, guid: 158debdf56ec41cdb97d66b6b7b1a7de, type: 3}
  m_Name: Wave1
  m_EditorClassIdentifier: 
  _enemyConfigs:
  - {fileID: 11400000, guid: fc25345143e9e34428f5495e20e32351, type: 2}
  _boss: {fileID: 0}
  _spawnAmount: 5
  _enemySpawnDelay: 3
  _nextWaveWaitSeconds: 5
